chisel_codes/test_run_dir/AEQTest_should_write_to_and_read_from_all_the_brams/AEQ.vcd
$version Generated by VerilatedVcd $end
$timescale 1ps $end

 $scope module TOP $end
  $var wire  1 ? clock $end
  $var wire 11 T io_readData_0 [10:0] $end
  $var wire 11 U io_readData_1 [10:0] $end
  $var wire 11 V io_readData_2 [10:0] $end
  $var wire 11 W io_readData_3 [10:0] $end
  $var wire 11 X io_readData_4 [10:0] $end
  $var wire 11 Y io_readData_5 [10:0] $end
  $var wire 11 Z io_readData_6 [10:0] $end
  $var wire 11 [ io_readData_7 [10:0] $end
  $var wire 11 \ io_readData_8 [10:0] $end
  $var wire  1 J io_readEnable $end
  $var wire  9 K io_writeData_0 [8:0] $end
  $var wire  9 L io_writeData_1 [8:0] $end
  $var wire  9 M io_writeData_2 [8:0] $end
  $var wire  9 N io_writeData_3 [8:0] $end
  $var wire  9 O io_writeData_4 [8:0] $end
  $var wire  9 P io_writeData_5 [8:0] $end
  $var wire  9 Q io_writeData_6 [8:0] $end
  $var wire  9 R io_writeData_7 [8:0] $end
  $var wire  9 S io_writeData_8 [8:0] $end
  $var wire  1 A io_writeEnable_0 $end
  $var wire  1 B io_writeEnable_1 $end
  $var wire  1 C io_writeEnable_2 $end
  $var wire  1 D io_writeEnable_3 $end
  $var wire  1 E io_writeEnable_4 $end
  $var wire  1 F io_writeEnable_5 $end
  $var wire  1 G io_writeEnable_6 $end
  $var wire  1 H io_writeEnable_7 $end
  $var wire  1 I io_writeEnable_8 $end
  $var wire  1 @ reset $end
  $scope module AEQ $end
   $var wire  8 6 brams_0_MPORT_1_addr [7:0] $end
   $var wire 11 ^ brams_0_MPORT_1_data [10:0] $end
   $var wire  1 , brams_0_MPORT_1_en $end
   $var wire  1 #! brams_0_MPORT_1_mask $end
   $var wire  8 6 brams_0_MPORT_addr [7:0] $end
   $var wire 11 ] brams_0_MPORT_data [10:0] $end
   $var wire  1 # brams_0_MPORT_en $end
   $var wire  1 #! brams_0_MPORT_mask $end
   $var wire  8 5 brams_0_data1_addr [7:0] $end
   $var wire 11 T brams_0_data1_data [10:0] $end
   $var wire  1 J brams_0_data1_en $end
   $var wire  8 7 brams_1_MPORT_2_addr [7:0] $end
   $var wire 11 _ brams_1_MPORT_2_data [10:0] $end
   $var wire  1 $ brams_1_MPORT_2_en $end
   $var wire  1 #! brams_1_MPORT_2_mask $end
   $var wire  8 7 brams_1_MPORT_3_addr [7:0] $end
   $var wire 11 ` brams_1_MPORT_3_data [10:0] $end
   $var wire  1 - brams_1_MPORT_3_en $end
   $var wire  1 #! brams_1_MPORT_3_mask $end
   $var wire  8 5 brams_1_data1_1_addr [7:0] $end
   $var wire 11 U brams_1_data1_1_data [10:0] $end
   $var wire  1 J brams_1_data1_1_en $end
   $var wire  8 8 brams_2_MPORT_4_addr [7:0] $end
   $var wire 11 a brams_2_MPORT_4_data [10:0] $end
   $var wire  1 % brams_2_MPORT_4_en $end
   $var wire  1 #! brams_2_MPORT_4_mask $end
   $var wire  8 8 brams_2_MPORT_5_addr [7:0] $end
   $var wire 11 b brams_2_MPORT_5_data [10:0] $end
   $var wire  1 . brams_2_MPORT_5_en $end
   $var wire  1 #! brams_2_MPORT_5_mask $end
   $var wire  8 5 brams_2_data1_2_addr [7:0] $end
   $var wire 11 V brams_2_data1_2_data [10:0] $end
   $var wire  1 J brams_2_data1_2_en $end
   $var wire  8 9 brams_3_MPORT_6_addr [7:0] $end
   $var wire 11 c brams_3_MPORT_6_data [10:0] $end
   $var wire  1 & brams_3_MPORT_6_en $end
   $var wire  1 #! brams_3_MPORT_6_mask $end
   $var wire  8 9 brams_3_MPORT_7_addr [7:0] $end
   $var wire 11 d brams_3_MPORT_7_data [10:0] $end
   $var wire  1 / brams_3_MPORT_7_en $end
   $var wire  1 #! brams_3_MPORT_7_mask $end
   $var wire  8 5 brams_3_data1_3_addr [7:0] $end
   $var wire 11 W brams_3_data1_3_data [10:0] $end
   $var wire  1 J brams_3_data1_3_en $end
   $var wire  8 : brams_4_MPORT_8_addr [7:0] $end
   $var wire 11 e brams_4_MPORT_8_data [10:0] $end
   $var wire  1 ' brams_4_MPORT_8_en $end
   $var wire  1 #! brams_4_MPORT_8_mask $end
   $var wire  8 : brams_4_MPORT_9_addr [7:0] $end
   $var wire 11 f brams_4_MPORT_9_data [10:0] $end
   $var wire  1 0 brams_4_MPORT_9_en $end
   $var wire  1 #! brams_4_MPORT_9_mask $end
   $var wire  8 5 brams_4_data1_4_addr [7:0] $end
   $var wire 11 X brams_4_data1_4_data [10:0] $end
   $var wire  1 J brams_4_data1_4_en $end
   $var wire  8 ; brams_5_MPORT_10_addr [7:0] $end
   $var wire 11 g brams_5_MPORT_10_data [10:0] $end
   $var wire  1 ( brams_5_MPORT_10_en $end
   $var wire  1 #! brams_5_MPORT_10_mask $end
   $var wire  8 ; brams_5_MPORT_11_addr [7:0] $end
   $var wire 11 h brams_5_MPORT_11_data [10:0] $end
   $var wire  1 1 brams_5_MPORT_11_en $end
   $var wire  1 #! brams_5_MPORT_11_mask $end
   $var wire  8 5 brams_5_data1_5_addr [7:0] $end
   $var wire 11 Y brams_5_data1_5_data [10:0] $end
   $var wire  1 J brams_5_data1_5_en $end
   $var wire  8 < brams_6_MPORT_12_addr [7:0] $end
   $var wire 11 i brams_6_MPORT_12_data [10:0] $end
   $var wire  1 ) brams_6_MPORT_12_en $end
   $var wire  1 #! brams_6_MPORT_12_mask $end
   $var wire  8 < brams_6_MPORT_13_addr [7:0] $end
   $var wire 11 j brams_6_MPORT_13_data [10:0] $end
   $var wire  1 2 brams_6_MPORT_13_en $end
   $var wire  1 #! brams_6_MPORT_13_mask $end
   $var wire  8 5 brams_6_data1_6_addr [7:0] $end
   $var wire 11 Z brams_6_data1_6_data [10:0] $end
   $var wire  1 J brams_6_data1_6_en $end
   $var wire  8 = brams_7_MPORT_14_addr [7:0] $end
   $var wire 11 k brams_7_MPORT_14_data [10:0] $end
   $var wire  1 * brams_7_MPORT_14_en $end
   $var wire  1 #! brams_7_MPORT_14_mask $end
   $var wire  8 = brams_7_MPORT_15_addr [7:0] $end
   $var wire 11 l brams_7_MPORT_15_data [10:0] $end
   $var wire  1 3 brams_7_MPORT_15_en $end
   $var wire  1 #! brams_7_MPORT_15_mask $end
   $var wire  8 5 brams_7_data1_7_addr [7:0] $end
   $var wire 11 [ brams_7_data1_7_data [10:0] $end
   $var wire  1 J brams_7_data1_7_en $end
   $var wire  8 > brams_8_MPORT_16_addr [7:0] $end
   $var wire 11 m brams_8_MPORT_16_data [10:0] $end
   $var wire  1 + brams_8_MPORT_16_en $end
   $var wire  1 #! brams_8_MPORT_16_mask $end
   $var wire  8 > brams_8_MPORT_17_addr [7:0] $end
   $var wire 11 n brams_8_MPORT_17_data [10:0] $end
   $var wire  1 4 brams_8_MPORT_17_en $end
   $var wire  1 #! brams_8_MPORT_17_mask $end
   $var wire  8 5 brams_8_data1_8_addr [7:0] $end
   $var wire 11 \ brams_8_data1_8_data [10:0] $end
   $var wire  1 J brams_8_data1_8_en $end
   $var wire  1 ? clock $end
   $var wire 10 o data_hi [9:0] $end
   $var wire 10 q data_hi_1 [9:0] $end
   $var wire 10 s data_hi_2 [9:0] $end
   $var wire 10 u data_hi_3 [9:0] $end
   $var wire 10 w data_hi_4 [9:0] $end
   $var wire 10 y data_hi_5 [9:0] $end
   $var wire 10 { data_hi_6 [9:0] $end
   $var wire 10 } data_hi_7 [9:0] $end
   $var wire 10 !! data_hi_8 [9:0] $end
   $var wire 11 T io_readData_0 [10:0] $end
   $var wire 11 U io_readData_1 [10:0] $end
   $var wire 11 V io_readData_2 [10:0] $end
   $var wire 11 W io_readData_3 [10:0] $end
   $var wire 11 X io_readData_4 [10:0] $end
   $var wire 11 Y io_readData_5 [10:0] $end
   $var wire 11 Z io_readData_6 [10:0] $end
   $var wire 11 [ io_readData_7 [10:0] $end
   $var wire 11 \ io_readData_8 [10:0] $end
   $var wire  1 J io_readEnable $end
   $var wire  9 K io_writeData_0 [8:0] $end
   $var wire  9 L io_writeData_1 [8:0] $end
   $var wire  9 M io_writeData_2 [8:0] $end
   $var wire  9 N io_writeData_3 [8:0] $end
   $var wire  9 O io_writeData_4 [8:0] $end
   $var wire  9 P io_writeData_5 [8:0] $end
   $var wire  9 Q io_writeData_6 [8:0] $end
   $var wire  9 R io_writeData_7 [8:0] $end
   $var wire  9 S io_writeData_8 [8:0] $end
   $var wire  1 A io_writeEnable_0 $end
   $var wire  1 B io_writeEnable_1 $end
   $var wire  1 C io_writeEnable_2 $end
   $var wire  1 D io_writeEnable_3 $end
   $var wire  1 E io_writeEnable_4 $end
   $var wire  1 F io_writeEnable_5 $end
   $var wire  1 G io_writeEnable_6 $end
   $var wire  1 H io_writeEnable_7 $end
   $var wire  1 I io_writeEnable_8 $end
   $var wire 10 p lastData_hi [9:0] $end
   $var wire 10 r lastData_hi_1 [9:0] $end
   $var wire 10 t lastData_hi_2 [9:0] $end
   $var wire 10 v lastData_hi_3 [9:0] $end
   $var wire 10 x lastData_hi_4 [9:0] $end
   $var wire 10 z lastData_hi_5 [9:0] $end
   $var wire 10 | lastData_hi_6 [9:0] $end
   $var wire 10 ~ lastData_hi_7 [9:0] $end
   $var wire 10 "! lastData_hi_8 [9:0] $end
   $var wire  8 5 readCounter [7:0] $end
   $var wire  1 @ reset $end
   $var wire  8 6 writeCounters_0 [7:0] $end
   $var wire  8 7 writeCounters_1 [7:0] $end
   $var wire  8 8 writeCounters_2 [7:0] $end
   $var wire  8 9 writeCounters_3 [7:0] $end
   $var wire  8 : writeCounters_4 [7:0] $end
   $var wire  8 ; writeCounters_5 [7:0] $end
   $var wire  8 < writeCounters_6 [7:0] $end
   $var wire  8 = writeCounters_7 [7:0] $end
   $var wire  8 > writeCounters_8 [7:0] $end
  $upscope $end
 $upscope $end
$enddefinitions $end


#0
0#
0$
0%
0&
0'
0(
0)
0*
0+
0,
0-
0.
0/
00
01
02
03
04
b00000000 5
b00000000 6
b00000000 7
b00000000 8
b00000000 9
b00000000 :
b00000000 ;
b00000000 <
b00000000 =
b00000000 >
0?
1@
0A
0B
0C
0D
0E
0F
0G
0H
0I
0J
b000000000 K
b000000000 L
b000000000 M
b000000000 N
b000000000 O
b000000000 P
b000000000 Q
b000000000 R
b000000000 S
b00000000000 T
b00000000000 U
b00000000000 V
b00000000000 W
b00000000000 X
b00000000000 Y
b00000000000 Z
b00000000000 [
b00000000000 \
b00000000001 ]
b10000000001 ^
b00000000001 _
b10000000001 `
b00000000001 a
b10000000001 b
b00000000001 c
b10000000001 d
b00000000001 e
b10000000001 f
b00000000001 g
b10000000001 h
b00000000001 i
b10000000001 j
b00000000001 k
b10000000001 l
b00000000001 m
b10000000001 n
b0000000000 o
b1000000000 p
b0000000000 q
b1000000000 r
b0000000000 s
b1000000000 t
b0000000000 u
b1000000000 v
b0000000000 w
b1000000000 x
b0000000000 y
b1000000000 z
b0000000000 {
b1000000000 |
b0000000000 }
b1000000000 ~
b0000000000 !!
b1000000000 "!
1#!
#1
1?
#2
1#
0?
0@
1A
#3
b00000001 6
1?
b00000000001 T
#4
0?
#5
b00000010 6
1?
#6
0?
#7
b00000011 6
1?
#8
0?
#9
b00000100 6
1?
#10
0?
#11
b00000101 6
1?
#12
0?
#13
b00000110 6
1?
#14
0?
#15
b00000111 6
1?
#16
0?
#17
b00001000 6
1?
#18
0?
#19
b00001001 6
1?
#20
0?
#21
b00001010 6
1?
#22
0?
#23
b00001011 6
1?
#24
0?
#25
b00001100 6
1?
#26
0?
#27
b00001101 6
1?
#28
0?
#29
b00001110 6
1?
#30
0?
#31
b00001111 6
1?
#32
0?
#33
b00010000 6
1?
#34
0?
#35
b00010001 6
1?
#36
0?
#37
b00010010 6
1?
#38
0?
#39
b00010011 6
1?
#40
0?
#41
b00010100 6
1?
#42
0?
#43
b00010101 6
1?
#44
0?
#45
b00010110 6
1?
#46
0?
#47
b00010111 6
1?
#48
0?
#49
b00011000 6
1?
#50
0?
#51
b00011001 6
1?
#52
0?
#53
b00011010 6
1?
#54
0?
#55
b00011011 6
1?
#56
0?
#57
b00011100 6
1?
#58
0?
#59
b00011101 6
1?
#60
0?
#61
b00011110 6
1?
#62
0?
#63
b00011111 6
1?
#64
0?
#65
b00100000 6
1?
#66
0?
#67
b00100001 6
1?
#68
0?
#69
b00100010 6
1?
#70
0?
#71
b00100011 6
1?
#72
0?
#73
b00100100 6
1?
#74
0?
#75
b00100101 6
1?
#76
0?
#77
b00100110 6
1?
#78
0?
#79
b00100111 6
1?
#80
0?
#81
b00101000 6
1?
#82
0?
#83
b00101001 6
1?
#84
0?
#85
b00101010 6
1?
#86
0?
#87
b00101011 6
1?
#88
0?
#89
b00101100 6
1?
#90
0?
#91
b00101101 6
1?
#92
0?
#93
b00101110 6
1?
#94
0?
#95
b00101111 6
1?
#96
0?
#97
b00110000 6
1?
#98
0?
#99
b00110001 6
1?
#100
0?
#101
b00110010 6
1?
#102
0?
#103
b00110011 6
1?
#104
0?
#105
b00110100 6
1?
#106
0?
#107
b00110101 6
1?
#108
0?
#109
b00110110 6
1?
#110
0?
#111
b00110111 6
1?
#112
0?
#113
b00111000 6
1?
#114
0?
#115
b00111001 6
1?
#116
0?
#117
b00111010 6
1?
#118
0?
#119
b00111011 6
1?
#120
0?
#121
b00111100 6
1?
#122
0?
#123
b00111101 6
1?
#124
0?
#125
b00111110 6
1?
#126
0?
#127
b00111111 6
1?
#128
0?
#129
b01000000 6
1?
#130
0?
#131
b01000001 6
1?
#132
0?
#133
b01000010 6
1?
#134
0?
#135
b01000011 6
1?
#136
0?
#137
b01000100 6
1?
#138
0?
#139
b01000101 6
1?
#140
0?
#141
b01000110 6
1?
#142
0?
#143
b01000111 6
1?
#144
0?
#145
b01001000 6
1?
#146
0?
#147
b01001001 6
1?
#148
0?
#149
b01001010 6
1?
#150
0?
#151
b01001011 6
1?
#152
0?
#153
b01001100 6
1?
#154
0?
#155
b01001101 6
1?
#156
0?
#157
b01001110 6
1?
#158
0?
#159
b01001111 6
1?
#160
0?
#161
b01010000 6
1?
#162
0?
#163
b01010001 6
1?
#164
0?
#165
b01010010 6
1?
#166
0?
#167
b01010011 6
1?
#168
0?
#169
b01010100 6
1?
#170
0?
#171
b01010101 6
1?
#172
0?
#173
b01010110 6
1?
#174
0?
#175
b01010111 6
1?
#176
0?
#177
b01011000 6
1?
#178
0?
#179
b01011001 6
1?
#180
0?
#181
b01011010 6
1?
#182
0?
#183
b01011011 6
1?
#184
0?
#185
b01011100 6
1?
#186
0?
#187
b01011101 6
1?
#188
0?
#189
b01011110 6
1?
#190
0?
#191
b01011111 6
1?
#192
0?
#193
b01100000 6
1?
#194
0?
#195
b01100001 6
1?
#196
0?
#197
b01100010 6
1?
#198
0?
#199
b01100011 6
1?
#200
0?
#201
b01100100 6
1?
#202
0?
#203
b01100101 6
1?
#204
0?
#205
b01100110 6
1?
#206
0?
#207
b01100111 6
1?
#208
0?
#209
b01101000 6
1?
#210
0?
#211
b01101001 6
1?
#212
0?
#213
b01101010 6
1?
#214
0?
#215
b01101011 6
1?
#216
0?
#217
b01101100 6
1?
#218
0?
#219
b01101101 6
1?
#220
0?
#221
b01101110 6
1?
#222
0?
#223
b01101111 6
1?
#224
0?
#225
b01110000 6
1?
#226
0?
#227
b01110001 6
1?
#228
0?
#229
b01110010 6
1?
#230
0?
#231
b01110011 6
1?
#232
0?
#233
b01110100 6
1?
#234
0?
#235
b01110101 6
1?
#236
0?
#237
b01110110 6
1?
#238
0?
#239
b01110111 6
1?
#240
0?
#241
b01111000 6
1?
#242
0?
#243
b01111001 6
1?
#244
0?
#245
b01111010 6
1?
#246
0?
#247
b01111011 6
1?
#248
0?
#249
b01111100 6
1?
#250
0?
#251
b01111101 6
1?
#252
0?
#253
b01111110 6
1?
#254
0?
#255
b01111111 6
1?
#256
0?
#257
b10000000 6
1?
#258
0?
#259
b10000001 6
1?
#260
0?
#261
b10000010 6
1?
#262
0?
#263
b10000011 6
1?
#264
0?
#265
b10000100 6
1?
#266
0?
#267
b10000101 6
1?
#268
0?
#269
b10000110 6
1?
#270
0?
#271
b10000111 6
1?
#272
0?
#273
b10001000 6
1?
#274
0?
#275
b10001001 6
1?
#276
0?
#277
b10001010 6
1?
#278
0?
#279
b10001011 6
1?
#280
0?
#281
b10001100 6
1?
#282
0?
#283
b10001101 6
1?
#284
0?
#285
b10001110 6
1?
#286
0?
#287
b10001111 6
1?
#288
0?
#289
b10010000 6
1?
#290
0?
#291
b10010001 6
1?
#292
0?
#293
b10010010 6
1?
#294
0?
#295
b10010011 6
1?
#296
0?
#297
b10010100 6
1?
#298
0?
#299
b10010101 6
1?
#300
0?
#301
b10010110 6
1?
#302
0?
#303
b10010111 6
1?
#304
0?
#305
b10011000 6
1?
#306
0?
#307
b10011001 6
1?
#308
0?
#309
b10011010 6
1?
#310
0?
#311
b10011011 6
1?
#312
0?
#313
b10011100 6
1?
#314
0?
#315
b10011101 6
1?
#316
0?
#317
b10011110 6
1?
#318
0?
#319
b10011111 6
1?
#320
0?
#321
b10100000 6
1?
#322
0?
#323
b10100001 6
1?
#324
0?
#325
b10100010 6
1?
#326
0?
#327
b10100011 6
1?
#328
0?
#329
b10100100 6
1?
#330
0?
#331
b10100101 6
1?
#332
0?
#333
b10100110 6
1?
#334
0?
#335
b10100111 6
1?
#336
0?
#337
b10101000 6
1?
#338
0?
#339
b10101001 6
1?
#340
0?
#341
b10101010 6
1?
#342
0?
#343
b10101011 6
1?
#344
0?
#345
b10101100 6
1?
#346
0?
#347
b10101101 6
1?
#348
0?
#349
b10101110 6
1?
#350
0?
#351
b10101111 6
1?
#352
0?
#353
b10110000 6
1?
#354
0?
#355
b10110001 6
1?
#356
0?
#357
b10110010 6
1?
#358
0?
#359
b10110011 6
1?
#360
0?
#361
b10110100 6
1?
#362
0?
#363
b10110101 6
1?
#364
0?
#365
b10110110 6
1?
#366
0?
#367
b10110111 6
1?
#368
0?
#369
b10111000 6
1?
#370
0?
#371
b10111001 6
1?
#372
0?
#373
b10111010 6
1?
#374
0?
#375
b10111011 6
1?
#376
0?
#377
b10111100 6
1?
#378
0?
#379
b10111101 6
1?
#380
0?
#381
b10111110 6
1?
#382
0?
#383
b10111111 6
1?
#384
0?
#385
b11000000 6
1?
#386
0?
#387
b11000001 6
1?
#388
0?
#389
b11000010 6
1?
#390
0?
#391
b11000011 6
1?
#392
0?
#393
b11000100 6
1?
#394
0?
#395
b11000101 6
1?
#396
0?
#397
b11000110 6
1?
#398
0?
#399
b11000111 6
1?
#400
0?
#401
b11001000 6
1?
#402
0?
#403
b11001001 6
1?
#404
0?
#405
b11001010 6
1?
#406
0?
#407
b11001011 6
1?
#408
0?
#409
b11001100 6
1?
#410
0?
#411
b11001101 6
1?
#412
0?
#413
b11001110 6
1?
#414
0?
#415
b11001111 6
1?
#416
0?
#417
b11010000 6
1?
#418
0?
#419
b11010001 6
1?
#420
0?
#421
b11010010 6
1?
#422
0?
#423
b11010011 6
1?
#424
0?
#425
b11010100 6
1?
#426
0?
#427
b11010101 6
1?
#428
0?
#429
b11010110 6
1?
#430
0?
#431
b11010111 6
1?
#432
0?
#433
b11011000 6
1?
#434
0?
#435
b11011001 6
1?
#436
0?
#437
b11011010 6
1?
#438
0?
#439
b11011011 6
1?
#440
0?
#441
b11011100 6
1?
#442
0?
#443
b11011101 6
1?
#444
0?
#445
b11011110 6
1?
#446
0?
#447
b11011111 6
1?
#448
0?
#449
b11100000 6
1?
#450
0?
#451
b11100001 6
1?
#452
0?
#453
b11100010 6
1?
#454
0?
#455
b11100011 6
1?
#456
0?
#457
b11100100 6
1?
#458
0?
#459
b11100101 6
1?
#460
0?
#461
b11100110 6
1?
#462
0?
#463
b11100111 6
1?
#464
0?
#465
b11101000 6
1?
#466
0?
#467
b11101001 6
1?
#468
0?
#469
b11101010 6
1?
#470
0?
#471
b11101011 6
1?
#472
0?
#473
b11101100 6
1?
#474
0?
#475
b11101101 6
1?
#476
0?
#477
b11101110 6
1?
#478
0?
#479
b11101111 6
1?
#480
0?
#481
b11110000 6
1?
#482
0?
#483
b11110001 6
1?
#484
0?
#485
b11110010 6
1?
#486
0?
#487
b11110011 6
1?
#488
0?
#489
b11110100 6
1?
#490
0?
#491
b11110101 6
1?
#492
0?
#493
b11110110 6
1?
#494
0?
#495
b11110111 6
1?
#496
0?
#497
b11111000 6
1?
#498
0?
#499
b11111001 6
1?
#500
0?
#501
b11111010 6
1?
#502
0?
#503
b11111011 6
1?
#504
0?
#505
b11111100 6
1?
#506
0?
#507
b11111101 6
1?
#508
0?
#509
b11111110 6
1?
#510
0?
#511
1,
b11111111 6
1?
#512
0?
#513
0,
b00000000 6
1?
#514
0#
1$
0?
0A
1B
b000000001 L
b00000000011 _
b10000000011 `
b0000000001 q
b1000000001 r
#515
b00000001 7
1?
b00000000011 U
#516
0?
#517
b00000010 7
1?
#518
0?
#519
b00000011 7
1?
#520
0?
#521
b00000100 7
1?
#522
0?
#523
b00000101 7
1?
#524
0?
#525
b00000110 7
1?
#526
0?
#527
b00000111 7
1?
#528
0?
#529
b00001000 7
1?
#530
0?
#531
b00001001 7
1?
#532
0?
#533
b00001010 7
1?
#534
0?
#535
b00001011 7
1?
#536
0?
#537
b00001100 7
1?
#538
0?
#539
b00001101 7
1?
#540
0?
#541
b00001110 7
1?
#542
0?
#543
b00001111 7
1?
#544
0?
#545
b00010000 7
1?
#546
0?
#547
b00010001 7
1?
#548
0?
#549
b00010010 7
1?
#550
0?
#551
b00010011 7
1?
#552
0?
#553
b00010100 7
1?
#554
0?
#555
b00010101 7
1?
#556
0?
#557
b00010110 7
1?
#558
0?
#559
b00010111 7
1?
#560
0?
#561
b00011000 7
1?
#562
0?
#563
b00011001 7
1?
#564
0?
#565
b00011010 7
1?
#566
0?
#567
b00011011 7
1?
#568
0?
#569
b00011100 7
1?
#570
0?
#571
b00011101 7
1?
#572
0?
#573
b00011110 7
1?
#574
0?
#575
b00011111 7
1?
#576
0?
#577
b00100000 7
1?
#578
0?
#579
b00100001 7
1?
#580
0?
#581
b00100010 7
1?
#582
0?
#583
b00100011 7
1?
#584
0?
#585
b00100100 7
1?
#586
0?
#587
b00100101 7
1?
#588
0?
#589
b00100110 7
1?
#590
0?
#591
b00100111 7
1?
#592
0?
#593
b00101000 7
1?
#594
0?
#595
b00101001 7
1?
#596
0?
#597
b00101010 7
1?
#598
0?
#599
b00101011 7
1?
#600
0?
#601
b00101100 7
1?
#602
0?
#603
b00101101 7
1?
#604
0?
#605
b00101110 7
1?
#606
0?
#607
b00101111 7
1?
#608
0?
#609
b00110000 7
1?
#610
0?
#611
b00110001 7
1?
#612
0?
#613
b00110010 7
1?
#614
0?
#615
b00110011 7
1?
#616
0?
#617
b00110100 7
1?
#618
0?
#619
b00110101 7
1?
#620
0?
#621
b00110110 7
1?
#622
0?
#623
b00110111 7
1?
#624
0?
#625
b00111000 7
1?
#626
0?
#627
b00111001 7
1?
#628
0?
#629
b00111010 7
1?
#630
0?
#631
b00111011 7
1?
#632
0?
#633
b00111100 7
1?
#634
0?
#635
b00111101 7
1?
#636
0?
#637
b00111110 7
1?
#638
0?
#639
b00111111 7
1?
#640
0?
#641
b01000000 7
1?
#642
0?
#643
b01000001 7
1?
#644
0?
#645
b01000010 7
1?
#646
0?
#647
b01000011 7
1?
#648
0?
#649
b01000100 7
1?
#650
0?
#651
b01000101 7
1?
#652
0?
#653
b01000110 7
1?
#654
0?
#655
b01000111 7
1?
#656
0?
#657
b01001000 7
1?
#658
0?
#659
b01001001 7
1?
#660
0?
#661
b01001010 7
1?
#662
0?
#663
b01001011 7
1?
#664
0?
#665
b01001100 7
1?
#666
0?
#667
b01001101 7
1?
#668
0?
#669
b01001110 7
1?
#670
0?
#671
b01001111 7
1?
#672
0?
#673
b01010000 7
1?
#674
0?
#675
b01010001 7
1?
#676
0?
#677
b01010010 7
1?
#678
0?
#679
b01010011 7
1?
#680
0?
#681
b01010100 7
1?
#682
0?
#683
b01010101 7
1?
#684
0?
#685
b01010110 7
1?
#686
0?
#687
b01010111 7
1?
#688
0?
#689
b01011000 7
1?
#690
0?
#691
b01011001 7
1?
#692
0?
#693
b01011010 7
1?
#694
0?
#695
b01011011 7
1?
#696
0?
#697
b01011100 7
1?
#698
0?
#699
b01011101 7
1?
#700
0?
#701
b01011110 7
1?
#702
0?
#703
b01011111 7
1?
#704
0?
#705
b01100000 7
1?
#706
0?
#707
b01100001 7
1?
#708
0?
#709
b01100010 7
1?
#710
0?
#711
b01100011 7
1?
#712
0?
#713
b01100100 7
1?
#714
0?
#715
b01100101 7
1?
#716
0?
#717
b01100110 7
1?
#718
0?
#719
b01100111 7
1?
#720
0?
#721
b01101000 7
1?
#722
0?
#723
b01101001 7
1?
#724
0?
#725
b01101010 7
1?
#726
0?
#727
b01101011 7
1?
#728
0?
#729
b01101100 7
1?
#730
0?
#731
b01101101 7
1?
#732
0?
#733
b01101110 7
1?
#734
0?
#735
b01101111 7
1?
#736
0?
#737
b01110000 7
1?
#738
0?
#739
b01110001 7
1?
#740
0?
#741
b01110010 7
1?
#742
0?
#743
b01110011 7
1?
#744
0?
#745
b01110100 7
1?
#746
0?
#747
b01110101 7
1?
#748
0?
#749
b01110110 7
1?
#750
0?
#751
b01110111 7
1?
#752
0?
#753
b01111000 7
1?
#754
0?
#755
b01111001 7
1?
#756
0?
#757
b01111010 7
1?
#758
0?
#759
b01111011 7
1?
#760
0?
#761
b01111100 7
1?
#762
0?
#763
b01111101 7
1?
#764
0?
#765
b01111110 7
1?
#766
0?
#767
b01111111 7
1?
#768
0?
#769
b10000000 7
1?
#770
0?
#771
b10000001 7
1?
#772
0?
#773
b10000010 7
1?
#774
0?
#775
b10000011 7
1?
#776
0?
#777
b10000100 7
1?
#778
0?
#779
b10000101 7
1?
#780
0?
#781
b10000110 7
1?
#782
0?
#783
b10000111 7
1?
#784
0?
#785
b10001000 7
1?
#786
0?
#787
b10001001 7
1?
#788
0?
#789
b10001010 7
1?
#790
0?
#791
b10001011 7
1?
#792
0?
#793
b10001100 7
1?
#794
0?
#795
b10001101 7
1?
#796
0?
#797
b10001110 7
1?
#798
0?
#799
b10001111 7
1?
#800
0?
#801
b10010000 7
1?
#802
0?
#803
b10010001 7
1?
#804
0?
#805
b10010010 7
1?
#806
0?
#807
b10010011 7
1?
#808
0?
#809
b10010100 7
1?
#810
0?
#811
b10010101 7
1?
#812
0?
#813
b10010110 7
1?
#814
0?
#815
b10010111 7
1?
#816
0?
#817
b10011000 7
1?
#818
0?
#819
b10011001 7
1?
#820
0?
#821
b10011010 7
1?
#822
0?
#823
b10011011 7
1?
#824
0?
#825
b10011100 7
1?
#826
0?
#827
b10011101 7
1?
#828
0?
#829
b10011110 7
1?
#830
0?
#831
b10011111 7
1?
#832
0?
#833
b10100000 7
1?
#834
0?
#835
b10100001 7
1?
#836
0?
#837
b10100010 7
1?
#838
0?
#839
b10100011 7
1?
#840
0?
#841
b10100100 7
1?
#842
0?
#843
b10100101 7
1?
#844
0?
#845
b10100110 7
1?
#846
0?
#847
b10100111 7
1?
#848
0?
#849
b10101000 7
1?
#850
0?
#851
b10101001 7
1?
#852
0?
#853
b10101010 7
1?
#854
0?
#855
b10101011 7
1?
#856
0?
#857
b10101100 7
1?
#858
0?
#859
b10101101 7
1?
#860
0?
#861
b10101110 7
1?
#862
0?
#863
b10101111 7
1?
#864
0?
#865
b10110000 7
1?
#866
0?
#867
b10110001 7
1?
#868
0?
#869
b10110010 7
1?
#870
0?
#871
b10110011 7
1?
#872
0?
#873
b10110100 7
1?
#874
0?
#875
b10110101 7
1?
#876
0?
#877
b10110110 7
1?
#878
0?
#879
b10110111 7
1?
#880
0?
#881
b10111000 7
1?
#882
0?
#883
b10111001 7
1?
#884
0?
#885
b10111010 7
1?
#886
0?
#887
b10111011 7
1?
#888
0?
#889
b10111100 7
1?
#890
0?
#891
b10111101 7
1?
#892
0?
#893
b10111110 7
1?
#894
0?
#895
b10111111 7
1?
#896
0?
#897
b11000000 7
1?
#898
0?
#899
b11000001 7
1?
#900
0?
#901
b11000010 7
1?
#902
0?
#903
b11000011 7
1?
#904
0?
#905
b11000100 7
1?
#906
0?
#907
b11000101 7
1?
#908
0?
#909
b11000110 7
1?
#910
0?
#911
b11000111 7
1?
#912
0?
#913
b11001000 7
1?
#914
0?
#915
b11001001 7
1?
#916
0?
#917
b11001010 7
1?
#918
0?
#919
b11001011 7
1?
#920
0?
#921
b11001100 7
1?
#922
0?
#923
b11001101 7
1?
#924
0?
#925
b11001110 7
1?
#926
0?
#927
b11001111 7
1?
#928
0?
#929
b11010000 7
1?
#930
0?
#931
b11010001 7
1?
#932
0?
#933
b11010010 7
1?
#934
0?
#935
b11010011 7
1?
#936
0?
#937
b11010100 7
1?
#938
0?
#939
b11010101 7
1?
#940
0?
#941
b11010110 7
1?
#942
0?
#943
b11010111 7
1?
#944
0?
#945
b11011000 7
1?
#946
0?
#947
b11011001 7
1?
#948
0?
#949
b11011010 7
1?
#950
0?
#951
b11011011 7
1?
#952
0?
#953
b11011100 7
1?
#954
0?
#955
b11011101 7
1?
#956
0?
#957
b11011110 7
1?
#958
0?
#959
b11011111 7
1?
#960
0?
#961
b11100000 7
1?
#962
0?
#963
b11100001 7
1?
#964
0?
#965
b11100010 7
1?
#966
0?
#967
b11100011 7
1?
#968
0?
#969
b11100100 7
1?
#970
0?
#971
b11100101 7
1?
#972
0?
#973
b11100110 7
1?
#974
0?
#975
b11100111 7
1?
#976
0?
#977
b11101000 7
1?
#978
0?
#979
b11101001 7
1?
#980
0?
#981
b11101010 7
1?
#982
0?
#983
b11101011 7
1?
